Lab5test/result/result_2.txt
WARNING: Instr_Memory.v:19: $readmemb(CO_test_data2.txt): Not enough words in the file for the requested range [0:31].
VCD info: dumpfile lab5.vcd opened for output.
PC =          0
Data Memory =          0,          0,          0,          0,          2,          0,          0,          0
Data Memory =          0,          0,          0,          0,          0,          0,          0,          0
Data Memory =          0,          0,          0,          0,          0,          0,          0,          0
Data Memory =          0,          0,          0,          0,          0,          0,          0,          0
Registers
R0 =          0, R1 =          0, R2 =          0, R3 =          0, R4 =          0, R5 =          0, R6 =          0, R7 =          0
R8 =          0, R9 =          0, R10 =         0, R11 =         0, R12 =         0, R13 =         0, R14 =         0, R15 =         0
R16 =         0, R17 =         0, R18 =         0, R19 =         0, R20 =         0, R21 =         0, R22 =         0, R23 =         0
R24 =         0, R25 =         0, R26 =         0, R27 =         0, R28 =         0, R29 =         0, R30 =         0, R31 =         0

PC =          4
Data Memory =          0,          0,          0,          0,          2,          0,          0,          0
Data Memory =          0,          0,          0,          0,          0,          0,          0,          0
Data Memory =          0,          0,          0,          0,          0,          0,          0,          0
Data Memory =          0,          0,          0,          0,          0,          0,          0,          0
Registers
R0 =          0, R1 =          0, R2 =          0, R3 =          0, R4 =          0, R5 =          0, R6 =          0, R7 =          0
R8 =          0, R9 =          0, R10 =         0, R11 =         0, R12 =         0, R13 =         0, R14 =         0, R15 =         0
R16 =         0, R17 =         0, R18 =         0, R19 =         0, R20 =         0, R21 =         0, R22 =         0, R23 =         0
R24 =         0, R25 =         0, R26 =         0, R27 =         0, R28 =         0, R29 =         0, R30 =         0, R31 =         0

PC =          8
Data Memory =          0,          0,          0,          0,          2,          0,          0,          0
Data Memory =          0,          0,          0,          0,          0,          0,          0,          0
Data Memory =          0,          0,          0,          0,          0,          0,          0,          0
Data Memory =          0,          0,          0,          0,          0,          0,          0,          0
Registers
R0 =          0, R1 =          0, R2 =          0, R3 =          0, R4 =          0, R5 =          0, R6 =          0, R7 =          0
R8 =          0, R9 =          0, R10 =         0, R11 =         0, R12 =         0, R13 =         0, R14 =         0, R15 =         0
R16 =         0, R17 =         0, R18 =         0, R19 =         0, R20 =         0, R21 =         0, R22 =         0, R23 =         0
R24 =         0, R25 =         0, R26 =         0, R27 =         0, R28 =         0, R29 =         0, R30 =         0, R31 =         0

PC =         12
Data Memory =          0,          0,          0,          0,          2,          0,          0,          0
Data Memory =          0,          0,          0,          0,          0,          0,          0,          0
Data Memory =          0,          0,          0,          0,          0,          0,          0,          0
Data Memory =          0,          0,          0,          0,          0,          0,          0,          0
Registers
R0 =          0, R1 =          0, R2 =          0, R3 =          0, R4 =          0, R5 =          0, R6 =          0, R7 =          0
R8 =          0, R9 =          0, R10 =         0, R11 =         0, R12 =         0, R13 =         0, R14 =         0, R15 =         0
R16 =         0, R17 =         0, R18 =         0, R19 =         0, R20 =         0, R21 =         0, R22 =         0, R23 =         0
R24 =         0, R25 =         0, R26 =         0, R27 =         0, R28 =         0, R29 =         0, R30 =         0, R31 =         0

PC =         16
Data Memory =          0,          0,          0,          0,          2,          0,          0,          0
Data Memory =          0,          0,          0,          0,          0,          0,          0,          0
Data Memory =          0,          0,          0,          0,          0,          0,          0,          0
Data Memory =          0,          0,          0,          0,          0,          0,          0,          0
Registers
R0 =          0, R1 =         23, R2 =          0, R3 =          0, R4 =          0, R5 =          0, R6 =          0, R7 =          0
R8 =          0, R9 =          0, R10 =         0, R11 =         0, R12 =         0, R13 =         0, R14 =         0, R15 =         0
R16 =         0, R17 =         0, R18 =         0, R19 =         0, R20 =         0, R21 =         0, R22 =         0, R23 =         0
R24 =         0, R25 =         0, R26 =         0, R27 =         0, R28 =         0, R29 =         0, R30 =         0, R31 =         0

PC =         20
Data Memory =          0,          0,          0,          0,          2,          0,          0,          0
Data Memory =          0,          0,          0,          0,          0,          0,          0,          0
Data Memory =          0,          0,          0,          0,          0,          0,          0,          0
Data Memory =          0,          0,          0,          0,          0,          0,          0,          0
Registers
R0 =          0, R1 =         23, R2 =         13, R3 =          0, R4 =          0, R5 =          0, R6 =          0, R7 =          0
R8 =          0, R9 =          0, R10 =         0, R11 =         0, R12 =         0, R13 =         0, R14 =         0, R15 =         0
R16 =         0, R17 =         0, R18 =         0, R19 =         0, R20 =         0, R21 =         0, R22 =         0, R23 =         0
R24 =         0, R25 =         0, R26 =         0, R27 =         0, R28 =         0, R29 =         0, R30 =         0, R31 =         0

PC =         24
Data Memory =          0,          0,          0,          0,          2,          0,          0,          0
Data Memory =          0,          0,          0,          0,          0,          0,          0,          0
Data Memory =          0,          0,          0,          0,          0,          0,          0,          0
Data Memory =          0,          0,          0,          0,          0,          0,          0,          0
Registers
R0 =          0, R1 =         23, R2 =         13, R3 =         16, R4 =          0, R5 =          0, R6 =          0, R7 =          0
R8 =          0, R9 =          0, R10 =         0, R11 =         0, R12 =         0, R13 =         0, R14 =         0, R15 =         0
R16 =         0, R17 =         0, R18 =         0, R19 =         0, R20 =         0, R21 =         0, R22 =         0, R23 =         0
R24 =         0, R25 =         0, R26 =         0, R27 =         0, R28 =         0, R29 =         0, R30 =         0, R31 =         0

PC =         28
Data Memory =          0,          0,          0,          0,          2,          0,          0,          0
Data Memory =          0,          0,          0,          0,          0,          0,          0,          0
Data Memory =          0,          0,          0,          0,          0,          0,          0,          0
Data Memory =          0,          0,          0,          0,          0,          0,          0,          0
Registers
R0 =          0, R1 =         23, R2 =         13, R3 =         16, R4 =          0, R5 =          0, R6 =          0, R7 =          0
R8 =          0, R9 =          0, R10 =         0, R11 =         0, R12 =         0, R13 =         0, R14 =         0, R15 =         0
R16 =         0, R17 =         0, R18 =         0, R19 =         0, R20 =         0, R21 =         0, R22 =         0, R23 =         0
R24 =         0, R25 =         0, R26 =         0, R27 =         0, R28 =         0, R29 =         0, R30 =         0, R31 =         0

PC =         32
Data Memory =          0,          0,          0,          0,          2,          0,          0,          0
Data Memory =          0,          0,          0,          0,          0,          0,          0,          0
Data Memory =          0,          0,          0,          0,          0,          0,          0,          0
Data Memory =          0,          0,          0,          0,          0,          0,          0,          0
Registers
R0 =          0, R1 =         23, R2 =         13, R3 =         16, R4 =          0, R5 =          0, R6 =          0, R7 =          0
R8 =          0, R9 =          0, R10 =         0, R11 =         0, R12 =         0, R13 =         0, R14 =         0, R15 =         0
R16 =         0, R17 =         0, R18 =         0, R19 =         0, R20 =         0, R21 =         0, R22 =         0, R23 =         0
R24 =         0, R25 =         0, R26 =         0, R27 =         0, R28 =         0, R29 =         0, R30 =         0, R31 =         0

PC =         36
Data Memory =          0,          0,          0,          0,          2,          0,          0,          0
Data Memory =          0,          0,          0,          0,          0,          0,          0,          0
Data Memory =          0,          0,          0,          0,          0,          0,          0,          0
Data Memory =          0,          0,          0,          0,          0,          0,          0,          0
Registers
R0 =          0, R1 =         23, R2 =         13, R3 =         16, R4 =         29, R5 =          0, R6 =          0, R7 =          0
R8 =          0, R9 =          0, R10 =         0, R11 =         0, R12 =         0, R13 =         0, R14 =         0, R15 =         0
R16 =         0, R17 =         0, R18 =         0, R19 =         0, R20 =         0, R21 =         0, R22 =         0, R23 =         0
R24 =         0, R25 =         0, R26 =         0, R27 =         0, R28 =         0, R29 =         0, R30 =         0, R31 =         0

PC =         40
Data Memory =          0,          0,          0,          0,          2,          0,          0,          0
Data Memory =          0,          0,          0,          0,          0,          0,          0,          0
Data Memory =          0,          0,          0,          0,          0,          0,          0,          0
Data Memory =          0,          0,          0,          0,          0,          0,          0,          0
Registers
R0 =          0, R1 =         23, R2 =         13, R3 =         16, R4 =         29, R5 =         10, R6 =          0, R7 =          0
R8 =          0, R9 =          0, R10 =         0, R11 =         0, R12 =         0, R13 =         0, R14 =         0, R15 =         0
R16 =         0, R17 =         0, R18 =         0, R19 =         0, R20 =         0, R21 =         0, R22 =         0, R23 =         0
R24 =         0, R25 =         0, R26 =         0, R27 =         0, R28 =         0, R29 =         0, R30 =         0, R31 =         0

PC =         44
Data Memory =          0,          0,          0,          0,          2,          0,          0,          0
Data Memory =          0,          0,          0,          0,          0,          0,          0,          0
Data Memory =          0,          0,          0,          0,          0,          0,          0,          0
Data Memory =          0,          0,          0,          0,          0,          0,          0,          0
Registers
R0 =          0, R1 =         23, R2 =         13, R3 =         16, R4 =         29, R5 =         10, R6 =         33, R7 =          0
R8 =          0, R9 =          0, R10 =         0, R11 =         0, R12 =         0, R13 =         0, R14 =         0, R15 =         0
R16 =         0, R17 =         0, R18 =         0, R19 =         0, R20 =         0, R21 =         0, R22 =         0, R23 =         0
R24 =         0, R25 =         0, R26 =         0, R27 =         0, R28 =         0, R29 =         0, R30 =         0, R31 =         0

PC =         48
Data Memory =          0,          0,          0,          0,          2,          0,          0,          0
Data Memory =          0,          0,          0,          0,          0,          0,          0,          0
Data Memory =          0,          0,          0,          0,          0,          0,          0,          0
Data Memory =          0,          0,          0,          0,          0,          0,          0,          0
Registers
R0 =          0, R1 =         23, R2 =         13, R3 =         16, R4 =         29, R5 =         10, R6 =         33, R7 =          0
R8 =          0, R9 =          0, R10 =         0, R11 =         0, R12 =         0, R13 =         0, R14 =         0, R15 =         0
R16 =         0, R17 =         0, R18 =         0, R19 =         0, R20 =         0, R21 =         0, R22 =         0, R23 =         0
R24 =         0, R25 =         0, R26 =         0, R27 =         0, R28 =         0, R29 =         0, R30 =         0, R31 =         0

PC =         52
Data Memory =          0,          0,          0,          0,          2,          0,          0,          0
Data Memory =          0,          0,          0,          0,          0,          0,          0,          0
Data Memory =          0,          0,          0,          0,          0,          0,          0,          0
Data Memory =          0,          0,          0,          0,          0,          0,          0,          0
Registers
R0 =          0, R1 =         23, R2 =         13, R3 =         16, R4 =         29, R5 =         10, R6 =         33, R7 =         26
R8 =          0, R9 =          0, R10 =         0, R11 =         0, R12 =         0, R13 =         0, R14 =         0, R15 =         0
R16 =         0, R17 =         0, R18 =         0, R19 =         0, R20 =         0, R21 =         0, R22 =         0, R23 =         0
R24 =         0, R25 =         0, R26 =         0, R27 =         0, R28 =         0, R29 =         0, R30 =         0, R31 =         0

PC =         56
Data Memory =          0,          0,          0,          0,          2,          0,          0,          0
Data Memory =          0,          0,          0,          0,          0,          0,          0,          0
Data Memory =          0,          0,          0,          0,          0,          0,          0,          0
Data Memory =          0,          0,          0,          0,          0,          0,          0,          0
Registers
R0 =          0, R1 =         23, R2 =         13, R3 =         16, R4 =         29, R5 =         10, R6 =         33, R7 =         26
R8 =          0, R9 =          0, R10 =         0, R11 =         0, R12 =         0, R13 =         0, R14 =         0, R15 =         0
R16 =         0, R17 =         0, R18 =         0, R19 =         0, R20 =         0, R21 =         0, R22 =         0, R23 =         0
R24 =         0, R25 =         0, R26 =         0, R27 =         0, R28 =         0, R29 =         0, R30 =         0, R31 =         0

PC =         60
Data Memory =          0,          0,          0,          0,          2,          0,          0,          0
Data Memory =          0,          0,          0,          0,          0,          0,          0,          0
Data Memory =          0,          0,          0,          0,          0,          0,          0,          0
Data Memory =          0,          0,          0,          0,          0,          0,          0,          0
Registers
R0 =          0, R1 =         23, R2 =         13, R3 =         16, R4 =         29, R5 =         10, R6 =         33, R7 =         26
R8 =          0, R9 =          0, R10 =         0, R11 =         0, R12 =         0, R13 =         0, R14 =         0, R15 =         0
R16 =         0, R17 =         0, R18 =         0, R19 =         0, R20 =         0, R21 =         0, R22 =         0, R23 =         0
R24 =         0, R25 =         0, R26 =         0, R27 =         0, R28 =         0, R29 =         0, R30 =         0, R31 =         0

PC =         64
Data Memory =          0,          0,          0,          0,          2,          0,          0,          0
Data Memory =          0,          0,          0,          0,          0,          0,          0,          0
Data Memory =          0,          0,          0,          0,          0,          0,          0,          0
Data Memory =          0,          0,          0,          0,          0,          0,          0,          0
Registers
R0 =          0, R1 =         23, R2 =         13, R3 =         16, R4 =         29, R5 =         10, R6 =         33, R7 =         26
R8 =          8, R9 =          0, R10 =         0, R11 =         0, R12 =         0, R13 =         0, R14 =         0, R15 =         0
R16 =         0, R17 =         0, R18 =         0, R19 =         0, R20 =         0, R21 =         0, R22 =         0, R23 =         0
R24 =         0, R25 =         0, R26 =         0, R27 =         0, R28 =         0, R29 =         0, R30 =         0, R31 =         0

PC =         68
Data Memory =          0,          0,          0,          0,          2,          0,          0,          0
Data Memory =          0,          0,          0,          0,          0,          0,          0,          0
Data Memory =          0,          0,          0,          0,          0,          0,          0,          0
Data Memory =          0,          0,          0,          0,          0,          0,          0,          0
Registers
R0 =          0, R1 =         23, R2 =         13, R3 =         16, R4 =         29, R5 =         10, R6 =         33, R7 =         26
R8 =          8, R9 =          0, R10 =         0, R11 =         0, R12 =         0, R13 =         0, R14 =         0, R15 =         0
R16 =         0, R17 =         0, R18 =         0, R19 =         0, R20 =         0, R21 =         0, R22 =         0, R23 =         0
R24 =         0, R25 =         0, R26 =         0, R27 =         0, R28 =         0, R29 =         0, R30 =         0, R31 =         0

PC =         72
Data Memory =          0,          0,          0,          0,          2,          0,          0,          0
Data Memory =          0,          0,          0,          0,          0,          0,          0,          0
Data Memory =          0,          0,          0,          0,          0,          0,          0,          0
Data Memory =          0,          0,          0,          0,          0,          0,          0,          0
Registers
R0 =          0, R1 =         23, R2 =         13, R3 =         16, R4 =         29, R5 =         10, R6 =         33, R7 =         26
R8 =          8, R9 =          0, R10 =         0, R11 =         0, R12 =         0, R13 =         0, R14 =         0, R15 =         0
R16 =         0, R17 =         0, R18 =         0, R19 =         0, R20 =         0, R21 =         0, R22 =         0, R23 =         0
R24 =         0, R25 =         0, R26 =         0, R27 =         0, R28 =         0, R29 =         0, R30 =         0, R31 =         0

PC =         76
Data Memory =          0,          0,          0,          0,          2,          0,          0,          0
Data Memory =          0,          0,          0,          0,          0,          0,          0,          0
Data Memory =          0,          0,          0,          0,          0,          0,          0,          0
Data Memory =          0,          0,          0,          0,          0,          0,          0,          0
Registers
R0 =          0, R1 =         23, R2 =         13, R3 =         16, R4 =         29, R5 =         10, R6 =         33, R7 =         26
R8 =          8, R9 =         41, R10 =         0, R11 =         0, R12 =         0, R13 =         0, R14 =         0, R15 =         0
R16 =         0, R17 =         0, R18 =         0, R19 =         0, R20 =         0, R21 =         0, R22 =         0, R23 =         0
R24 =         0, R25 =         0, R26 =         0, R27 =         0, R28 =         0, R29 =         0, R30 =         0, R31 =         0

PC =         80
Data Memory =          0,          0,          0,          0,          2,          0,          0,          0
Data Memory =          0,          0,          0,          0,          0,          0,          0,          0
Data Memory =          0,          0,          0,          0,          0,          0,          0,          0
Data Memory =          0,          0,          0,          0,          0,          0,          0,          0
Registers
R0 =          0, R1 =         23, R2 =         13, R3 =         16, R4 =         29, R5 =         10, R6 =         33, R7 =         26
R8 =          8, R9 =         41, R10 =         0, R11 =         0, R12 =         0, R13 =         0, R14 =         0, R15 =         0
R16 =         0, R17 =         0, R18 =         0, R19 =         0, R20 =         0, R21 =         0, R22 =         0, R23 =         0
R24 =         0, R25 =         0, R26 =         0, R27 =         0, R28 =         0, R29 =         0, R30 =         0, R31 =         0

PC =         84
Data Memory =          0,          0,          0,          0,          2,          0,          0,          0
Data Memory =          0,          0,          0,          0,          0,          0,          0,          0
Data Memory =          0,          0,          0,          0,          0,          0,          0,          0
Data Memory =          0,          0,          0,          0,          0,          0,          0,          0
Registers
R0 =          0, R1 =         23, R2 =         13, R3 =         16, R4 =         29, R5 =         10, R6 =         33, R7 =         26
R8 =          8, R9 =         41, R10 =         0, R11 =         0, R12 =         0, R13 =         0, R14 =         0, R15 =         0
R16 =         0, R17 =         0, R18 =         0, R19 =         0, R20 =         0, R21 =         0, R22 =         0, R23 =         0
R24 =         0, R25 =         0, R26 =         0, R27 =         0, R28 =         0, R29 =         0, R30 =         0, R31 =         0

PC =         88
Data Memory =          0,          0,          0,          0,          2,          0,          0,          0
Data Memory =          0,          0,          0,          0,          0,          0,          0,          0
Data Memory =          0,          0,          0,          0,          0,          0,          0,          0
Data Memory =          0,          0,          0,          0,          0,          0,          0,          0
Registers
R0 =          0, R1 =         23, R2 =         13, R3 =         16, R4 =         29, R5 =         10, R6 =         33, R7 =         26
R8 =          8, R9 =         41, R10 =         0, R11 =         0, R12 =         0, R13 =         0, R14 =         0, R15 =         0
R16 =         0, R17 =         0, R18 =         0, R19 =         0, R20 =         0, R21 =         0, R22 =         0, R23 =         0
R24 =         0, R25 =         0, R26 =         0, R27 =         0, R28 =         0, R29 =         0, R30 =         0, R31 =         0

PC =         92
Data Memory =          0,          0,          0,          0,          2,          0,          0,          0
Data Memory =          0,          0,          0,          0,          0,          0,          0,          0
Data Memory =          0,          0,          0,          0,          0,          0,          0,          0
Data Memory =          0,          0,          0,          0,          0,          0,          0,          0
Registers
R0 =          0, R1 =         23, R2 =         13, R3 =         16, R4 =         29, R5 =         10, R6 =         33, R7 =         26
R8 =          8, R9 =         41, R10 =         0, R11 =         0, R12 =         0, R13 =         0, R14 =         0, R15 =         0
R16 =         0, R17 =         0, R18 =         0, R19 =         0, R20 =         0, R21 =         0, R22 =         0, R23 =         0
R24 =         0, R25 =         0, R26 =         0, R27 =         0, R28 =         0, R29 =         0, R30 =         0, R31 =         0

PC =         96
Data Memory =          0,          0,          0,          0,          2,          0,          0,          0
Data Memory =          0,          0,          0,          0,          0,          0,          0,          0
Data Memory =          0,          0,          0,          0,          0,          0,          0,          0
Data Memory =          0,          0,          0,          0,          0,          0,          0,          0
Registers
R0 =          0, R1 =         23, R2 =         13, R3 =         16, R4 =         29, R5 =         10, R6 =         33, R7 =         26
R8 =          8, R9 =         41, R10 =         0, R11 =         0, R12 =         0, R13 =         0, R14 =         0, R15 =         0
R16 =         0, R17 =         0, R18 =         0, R19 =         0, R20 =         0, R21 =         0, R22 =         0, R23 =         0
R24 =         0, R25 =         0, R26 =         0, R27 =         0, R28 =         0, R29 =         0, R30 =         0, R31 =         0

PC =        100
Data Memory =          0,          0,          0,          0,          2,          0,          0,          0
Data Memory =          0,          0,          0,          0,          0,          0,          0,          0
Data Memory =          0,          0,          0,          0,          0,          0,          0,          0
Data Memory =          0,          0,          0,          0,          0,          0,          0,          0
Registers
R0 =          0, R1 =         23, R2 =         13, R3 =         16, R4 =         29, R5 =         10, R6 =         33, R7 =         26
R8 =          8, R9 =         41, R10 =         0, R11 =         0, R12 =         0, R13 =         0, R14 =         0, R15 =         0
R16 =         0, R17 =         0, R18 =         0, R19 =         0, R20 =         0, R21 =         0, R22 =         0, R23 =         0
R24 =         0, R25 =         0, R26 =         0, R27 =         0, R28 =         0, R29 =         0, R30 =         0, R31 =         0

PC =        104
Data Memory =          0,          0,          0,          0,          2,          0,          0,          0
Data Memory =          0,          0,          0,          0,          0,          0,          0,          0
Data Memory =          0,          0,          0,          0,          0,          0,          0,          0
Data Memory =          0,          0,          0,          0,          0,          0,          0,          0
Registers
R0 =          0, R1 =         23, R2 =         13, R3 =         16, R4 =         29, R5 =         10, R6 =         33, R7 =         26
R8 =          8, R9 =         41, R10 =         0, R11 =         0, R12 =         0, R13 =         0, R14 =         0, R15 =         0
R16 =         0, R17 =         0, R18 =         0, R19 =         0, R20 =         0, R21 =         0, R22 =         0, R23 =         0
R24 =         0, R25 =         0, R26 =         0, R27 =         0, R28 =         0, R29 =         0, R30 =         0, R31 =         0

PC =        108
Data Memory =          0,          0,          0,          0,          2,          0,          0,          0
Data Memory =          0,          0,          0,          0,          0,          0,          0,          0
Data Memory =          0,          0,          0,          0,          0,          0,          0,          0
Data Memory =          0,          0,          0,          0,          0,          0,          0,          0
Registers
R0 =          0, R1 =         23, R2 =         13, R3 =         16, R4 =         29, R5 =         10, R6 =         33, R7 =         26
R8 =          8, R9 =         41, R10 =         0, R11 =         0, R12 =         0, R13 =         0, R14 =         0, R15 =         0
R16 =         0, R17 =         0, R18 =         0, R19 =         0, R20 =         0, R21 =         0, R22 =         0, R23 =         0
R24 =         0, R25 =         0, R26 =         0, R27 =         0, R28 =         0, R29 =         0, R30 =         0, R31 =         0

PC =        112
Data Memory =          0,          0,          0,          0,          2,          0,          0,          0
Data Memory =          0,          0,          0,          0,          0,          0,          0,          0
Data Memory =          0,          0,          0,          0,          0,          0,          0,          0
Data Memory =          0,          0,          0,          0,          0,          0,          0,          0
Registers
R0 =          0, R1 =         23, R2 =         13, R3 =         16, R4 =         29, R5 =         10, R6 =         33, R7 =         26
R8 =          8, R9 =         41, R10 =         0, R11 =         0, R12 =         0, R13 =         0, R14 =         0, R15 =         0
R16 =         0, R17 =         0, R18 =         0, R19 =         0, R20 =         0, R21 =         0, R22 =         0, R23 =         0
R24 =         0, R25 =         0, R26 =         0, R27 =         0, R28 =         0, R29 =         0, R30 =         0, R31 =         0

PC =        116
Data Memory =          0,          0,          0,          0,          2,          0,          0,          0
Data Memory =          0,          0,          0,          0,          0,          0,          0,          0
Data Memory =          0,          0,          0,          0,          0,          0,          0,          0
Data Memory =          0,          0,          0,          0,          0,          0,          0,          0
Registers
R0 =          0, R1 =         23, R2 =         13, R3 =         16, R4 =         29, R5 =         10, R6 =         33, R7 =         26
R8 =          8, R9 =         41, R10 =         0, R11 =         0, R12 =         0, R13 =         0, R14 =         0, R15 =         0
R16 =         0, R17 =         0, R18 =         0, R19 =         0, R20 =         0, R21 =         0, R22 =         0, R23 =         0
R24 =         0, R25 =         0, R26 =         0, R27 =         0, R28 =         0, R29 =         0, R30 =         0, R31 =         0

PC =        120
Data Memory =          0,          0,          0,          0,          2,          0,          0,          0
Data Memory =          0,          0,          0,          0,          0,          0,          0,          0
Data Memory =          0,          0,          0,          0,          0,          0,          0,          0
Data Memory =          0,          0,          0,          0,          0,          0,          0,          0
Registers
R0 =          0, R1 =         23, R2 =         13, R3 =         16, R4 =         29, R5 =         10, R6 =         33, R7 =         26
R8 =          8, R9 =         41, R10 =         0, R11 =         0, R12 =         0, R13 =         0, R14 =         0, R15 =         0
R16 =         0, R17 =         0, R18 =         0, R19 =         0, R20 =         0, R21 =         0, R22 =         0, R23 =         0
R24 =         0, R25 =         0, R26 =         0, R27 =         0, R28 =         0, R29 =         0, R30 =         0, R31 =         0

PC =        124
Data Memory =          0,          0,          0,          0,          2,          0,          0,          0
Data Memory =          0,          0,          0,          0,          0,          0,          0,          0
Data Memory =          0,          0,          0,          0,          0,          0,          0,          0
Data Memory =          0,          0,          0,          0,          0,          0,          0,          0
Registers
R0 =          0, R1 =         23, R2 =         13, R3 =         16, R4 =         29, R5 =         10, R6 =         33, R7 =         26
R8 =          8, R9 =         41, R10 =         0, R11 =         0, R12 =         0, R13 =         0, R14 =         0, R15 =         0
R16 =         0, R17 =         0, R18 =         0, R19 =         0, R20 =         0, R21 =         0, R22 =         0, R23 =         0
R24 =         0, R25 =         0, R26 =         0, R27 =         0, R28 =         0, R29 =         0, R30 =         0, R31 =         0

PC =        128
Data Memory =          0,          0,          0,          0,          2,          0,          0,          0
Data Memory =          0,          0,          0,          0,          0,          0,          0,          0
Data Memory =          0,          0,          0,          0,          0,          0,          0,          0
Data Memory =          0,          0,          0,          0,          0,          0,          0,          0
Registers
R0 =          0, R1 =         23, R2 =         13, R3 =         16, R4 =         29, R5 =         10, R6 =         33, R7 =         26
R8 =          8, R9 =         41, R10 =         0, R11 =         0, R12 =         0, R13 =         0, R14 =         0, R15 =         0
R16 =         0, R17 =         0, R18 =         0, R19 =         0, R20 =         0, R21 =         0, R22 =         0, R23 =         0
R24 =         0, R25 =         0, R26 =         0, R27 =         0, R28 =         0, R29 =         0, R30 =         0, R31 =         0

PC =        132
Data Memory =          0,          0,          0,          0,          2,          0,          0,          0
Data Memory =          0,          0,          0,          0,          0,          0,          0,          0
Data Memory =          0,          0,          0,          0,          0,          0,          0,          0
Data Memory =          0,          0,          0,          0,          0,          0,          0,          0
Registers
R0 =          0, R1 =         23, R2 =         13, R3 =         16, R4 =         29, R5 =         10, R6 =         33, R7 =         26
R8 =          8, R9 =         41, R10 =         0, R11 =         0, R12 =         0, R13 =         0, R14 =         0, R15 =         0
R16 =         0, R17 =         0, R18 =         0, R19 =         0, R20 =         0, R21 =         0, R22 =         0, R23 =         0
R24 =         0, R25 =         0, R26 =         0, R27 =         0, R28 =         0, R29 =         0, R30 =         0, R31 =         0

PC =          X
Data Memory =          0,          0,          0,          0,          2,          0,          0,          0
Data Memory =          0,          0,          0,          0,          0,          0,          0,          0
Data Memory =          0,          0,          0,          0,          0,          0,          0,          0
Data Memory =          0,          0,          0,          0,          0,          0,          0,          0
Registers
R0 =          0, R1 =         23, R2 =         13, R3 =         16, R4 =         29, R5 =         10, R6 =         33, R7 =         26
R8 =          8, R9 =         41, R10 =         0, R11 =         0, R12 =         0, R13 =         0, R14 =         0, R15 =         0
R16 =         0, R17 =         0, R18 =         0, R19 =         0, R20 =         0, R21 =         0, R22 =         0, R23 =         0
R24 =         0, R25 =         0, R26 =         0, R27 =         0, R28 =         0, R29 =         0, R30 =         0, R31 =         0

